[16:14:20] [main/DEBUG] [FML/]: Injecting tracing printstreams for STDOUT/STDERR.
[16:14:20] [main/INFO] [FML/]: Forge Mod Loader version 7.99.40.1614 for Minecraft 1.7.10 loading
[16:14:20] [main/INFO] [FML/]: Java is Java HotSpot(TM) 64-Bit Server VM, version 1.8.0_151, running on Mac OS X:x86_64:10.12.5, installed at /Library/Java/JavaVirtualMachines/jdk1.8.0_151.jdk/Contents/Home/jre
[16:14:20] [main/DEBUG] [FML/]: Java classpath at launch is /Users/maruku/.gradle/caches/minecraft/net/minecraftforge/forge/1.7.10-10.13.4.1614-1.7.10/start:/Users/maruku/.gradle/caches/minecraft/net/minecraftforge/forge/1.7.10-10.13.4.1614-1.7.10/forgeSrc-1.7.10-10.13.4.1614-1.7.10.jar:/Users/maruku/.gradle/caches/modules-2/files-2.1/net.minecraft/launchwrapper/1.12/111e7bea9c968cdb3d06ef4632bf7ff0824d0f36/launchwrapper-1.12.jar:/Users/maruku/.gradle/caches/modules-2/files-2.1/com.google.code.findbugs/jsr305/1.3.9/40719ea6961c0cb6afaeb6a921eaa1f6afd4cfdf/jsr305-1.3.9.jar:/Users/maruku/.gradle/caches/modules-2/files-2.1/org.ow2.asm/asm-debug-all/5.0.3/f9e364ae2a66ce2a543012a4668856e84e5dab74/asm-debug-all-5.0.3.jar:/Users/maruku/.gradle/caches/modules-2/files-2.1/com.typesafe.akka/akka-actor_2.11/2.3.3/ed62e9fc709ca0f2ff1a3220daa8b70a2870078e/akka-actor_2.11-2.3.3.jar:/Users/maruku/.gradle/caches/modules-2/files-2.1/com.typesafe/config/1.2.1/f771f71fdae3df231bcd54d5ca2d57f0bf93f467/config-1.2.1.jar:/Users/maruku/.gradle/caches/modules-2/files-2.1/org.scala-lang/scala-actors-migration_2.11/1.1.0/dfa8bc42b181d5b9f1a5dd147f8ae308b893eb6f/scala-actors-migration_2.11-1.1.0.jar:/Users/maruku/.gradle/caches/modules-2/files-2.1/org.scala-lang/scala-compiler/2.11.1/56ea2e6c025e0821f28d73ca271218b8dd04926a/scala-compiler-2.11.1.jar:/Users/maruku/.gradle/caches/modules-2/files-2.1/org.scala-lang.plugins/scala-continuations-library_2.11/1.0.2/e517c53a7e9acd6b1668c5a35eccbaa3bab9aac/scala-continuations-library_2.11-1.0.2.jar:/Users/maruku/.gradle/caches/modules-2/files-2.1/org.scala-lang.plugins/scala-continuations-plugin_2.11.1/1.0.2/f361a3283452c57fa30c1ee69448995de23c60f7/scala-continuations-plugin_2.11.1-1.0.2.jar:/Users/maruku/.gradle/caches/modules-2/files-2.1/org.scala-lang/scala-library/2.11.1/e11da23da3eabab9f4777b9220e60d44c1aab6a/scala-library-2.11.1.jar:/Users/maruku/.gradle/caches/modules-2/files-2.1/org.scala-lang/scala-parser-combinators_2.11/1.0.1/f05d7345bf5a58924f2837c6c1f4d73a938e1ff0/scala-parser-combinators_2.11-1.0.1.jar:/Users/maruku/.gradle/caches/modules-2/files-2.1/org.scala-lang/scala-reflect/2.11.1/6580347e61cc7f8e802941e7fde40fa83b8badeb/scala-reflect-2.11.1.jar:/Users/maruku/.gradle/caches/modules-2/files-2.1/org.scala-lang/scala-swing_2.11/1.0.1/b1cdd92bd47b1e1837139c1c53020e86bb9112ae/scala-swing_2.11-1.0.1.jar:/Users/maruku/.gradle/caches/modules-2/files-2.1/org.scala-lang/scala-xml_2.11/1.0.2/7a80ec00aec122fba7cd4e0d4cdd87ff7e4cb6d0/scala-xml_2.11-1.0.2.jar:/Users/maruku/.gradle/caches/modules-2/files-2.1/net.sf.jopt-simple/jopt-simple/4.5/6065cc95c661255349c1d0756657be17c29a4fd3/jopt-simple-4.5.jar:/Users/maruku/.gradle/caches/modules-2/files-2.1/lzma/lzma/0.0.1/521616dc7487b42bef0e803bd2fa3faf668101d7/lzma-0.0.1.jar:/Users/maruku/.gradle/caches/modules-2/files-2.1/com.mojang/realms/1.3.5/807ae355ee63583becd7ea60e76aab1532bb42e/realms-1.3.5.jar:/Users/maruku/.gradle/caches/modules-2/files-2.1/org.apache.commons/commons-compress/1.8.1/a698750c16740fd5b3871425f4cb3bbaa87f529d/commons-compress-1.8.1.jar:/Users/maruku/.gradle/caches/modules-2/files-2.1/org.apache.httpcomponents/httpclient/4.3.3/18f4247ff4572a074444572cee34647c43e7c9c7/httpclient-4.3.3.jar:/Users/maruku/.gradle/caches/modules-2/files-2.1/commons-logging/commons-logging/1.1.3/f6f66e966c70a83ffbdb6f17a0919eaf7c8aca7f/commons-logging-1.1.3.jar:/Users/maruku/.gradle/caches/modules-2/files-2.1/org.apache.httpcomponents/httpcore/4.3.2/31fbbff1ddbf98f3aa7377c94d33b0447c646b6e/httpcore-4.3.2.jar:/Users/maruku/.gradle/caches/modules-2/files-2.1/java3d/vecmath/1.3.1/a0ae4f51da409fa0c20fa0ca59e6bbc9413ae71d/vecmath-1.3.1.jar:/Users/maruku/.gradle/caches/modules-2/files-2.1/net.sf.trove4j/trove4j/3.0.3/42ccaf4761f0dfdfa805c9e340d99a755907e2dd/trove4j-3.0.3.jar:/Users/maruku/.gradle/caches/modules-2/files-2.1/com.ibm.icu/icu4j-core-mojang/51.2/63d216a9311cca6be337c1e458e587f99d382b84/icu4j-core-mojang-51.2.jar:/Users/maruku/.gradle/caches/modules-2/files-2.1/com.paulscode/codecjorbis/20101023/c73b5636faf089d9f00e8732a829577de25237ee/codecjorbis-20101023.jar:/Users/maruku/.gradle/caches/modules-2/files-2.1/com.paulscode/codecwav/20101023/12f031cfe88fef5c1dd36c563c0a3a69bd7261da/codecwav-20101023.jar:/Users/maruku/.gradle/caches/modules-2/files-2.1/com.paulscode/libraryjavasound/20101123/5c5e304366f75f9eaa2e8cca546a1fb6109348b3/libraryjavasound-20101123.jar:/Users/maruku/.gradle/caches/modules-2/files-2.1/com.paulscode/librarylwjglopenal/20100824/73e80d0794c39665aec3f62eee88ca91676674ef/librarylwjglopenal-20100824.jar:/Users/maruku/.gradle/caches/modules-2/files-2.1/com.paulscode/soundsystem/20120107/419c05fe9be71f792b2d76cfc9b67f1ed0fec7f6/soundsystem-20120107.jar:/Users/maruku/.gradle/caches/modules-2/files-2.1/io.netty/netty-all/4.0.10.Final/9e50bd52ffe257a0e2cd8d971688d6ce7d174325/netty-all-4.0.10.Final.jar:/Users/maruku/.gradle/caches/modules-2/files-2.1/com.google.guava/guava/17.0/9c6ef172e8de35fd8d4d8783e4821e57cdef7445/guava-17.0.jar:/Users/maruku/.gradle/caches/modules-2/files-2.1/org.apache.commons/commons-lang3/3.3.2/90a3822c38ec8c996e84c16a3477ef632cbc87a3/commons-lang3-3.3.2.jar:/Users/maruku/.gradle/caches/modules-2/files-2.1/commons-io/commons-io/2.4/b1b6ea3b7e4aa4f492509a4952029cd8e48019ad/commons-io-2.4.jar:/Users/maruku/.gradle/caches/modules-2/files-2.1/commons-codec/commons-codec/1.9/9ce04e34240f674bc72680f8b843b1457383161a/commons-codec-1.9.jar:/Users/maruku/.gradle/caches/modules-2/files-2.1/net.java.jinput/jinput/2.0.5/39c7796b469a600f72380316f6b1f11db6c2c7c4/jinput-2.0.5.jar:/Users/maruku/.gradle/caches/modules-2/files-2.1/net.java.jutils/jutils/1.0.0/e12fe1fda814bd348c1579329c86943d2cd3c6a6/jutils-1.0.0.jar:/Users/maruku/.gradle/caches/modules-2/files-2.1/com.google.code.gson/gson/2.2.4/a60a5e993c98c864010053cb901b7eab25306568/gson-2.2.4.jar:/Users/maruku/.gradle/caches/modules-2/files-2.1/com.mojang/authlib/1.5.16/ef1582b11fd0943d069cdcb72e99008ac209a283/authlib-1.5.16.jar:/Users/maruku/.gradle/caches/modules-2/files-2.1/org.apache.logging.log4j/log4j-api/2.0-beta9/1dd66e68cccd907880229f9e2de1314bd13ff785/log4j-api-2.0-beta9.jar:/Users/maruku/.gradle/caches/modules-2/files-2.1/org.apache.logging.log4j/log4j-core/2.0-beta9/678861ba1b2e1fccb594bb0ca03114bb05da9695/log4j-core-2.0-beta9.jar:/Users/maruku/.gradle/caches/modules-2/files-2.1/org.lwjgl.lwjgl/lwjgl/2.9.1/f58c5aabcef0e41718a564be9f8e412fff8db847/lwjgl-2.9.1.jar:/Users/maruku/.gradle/caches/modules-2/files-2.1/org.lwjgl.lwjgl/lwjgl_util/2.9.1/290d7ba8a1bd9566f5ddf16ad06f09af5ec9b20e/lwjgl_util-2.9.1.jar:/Users/maruku/.gradle/caches/modules-2/files-2.1/tv.twitch/twitch/5.16/1f55f009c61637c10c0acfb8b5ffc600f30044b4/twitch-5.16.jar:/Users/maruku/.gradle/caches/modules-2/files-2.1/org.scala-lang/scala-actors/2.11.0/8ccfb6541de179bb1c4d45cf414acee069b7f78b/scala-actors-2.11.0.jar:/Users/maruku/.gradle/caches/modules-2/files-2.1/org.scala-lang.modules/scala-xml_2.11/1.0.2/820fbca7e524b530fdadc594c39d49a21ea0337e/scala-xml_2.11-1.0.2.jar:/Users/maruku/.gradle/caches/modules-2/files-2.1/org.scala-lang.modules/scala-parser-combinators_2.11/1.0.1/f05d7345bf5a58924f2837c6c1f4d73a938e1ff0/scala-parser-combinators_2.11-1.0.1.jar:/Users/maruku/.gradle/caches/modules-2/files-2.1/net.java.jinput/jinput-platform/2.0.5/7ff832a6eb9ab6a767f1ade2b548092d0fa64795/jinput-platform-2.0.5-natives-linux.jar:/Users/maruku/.gradle/caches/modules-2/files-2.1/net.java.jinput/jinput-platform/2.0.5/385ee093e01f587f30ee1c8a2ee7d408fd732e16/jinput-platform-2.0.5-natives-windows.jar:/Users/maruku/.gradle/caches/modules-2/files-2.1/net.java.jinput/jinput-platform/2.0.5/53f9c919f34d2ca9de8c51fc4e1e8282029a9232/jinput-platform-2.0.5-natives-osx.jar:/Users/maruku/.gradle/caches/modules-2/files-2.1/tv.twitch/twitch-platform/5.16/7c6affe439099806a4f552da14c42f9d643d8b23/twitch-platform-5.16-natives-windows-32.jar:/Users/maruku/.gradle/caches/modules-2/files-2.1/tv.twitch/twitch-platform/5.16/39d0c3d363735b4785598e0e7fbf8297c706a9f9/twitch-platform-5.16-natives-windows-64.jar:/Users/maruku/.gradle/caches/modules-2/files-2.1/tv.twitch/twitch-platform/5.16/62503ee712766cf77f97252e5902786fd834b8c5/twitch-platform-5.16-natives-osx.jar:/Users/maruku/.gradle/caches/modules-2/files-2.1/tv.twitch/twitch-external-platform/4.5/18215140f010c05b9f86ef6f0f8871954d2ccebf/twitch-external-platform-4.5-natives-windows-32.jar:/Users/maruku/.gradle/caches/modules-2/files-2.1/tv.twitch/twitch-external-platform/4.5/c3cde57891b935d41b6680a9c5e1502eeab76d86/twitch-external-platform-4.5-natives-windows-64.jar:/Users/maruku/.gradle/caches/modules-2/files-2.1/org.lwjgl.lwjgl/lwjgl-platform/2.9.1/4c517eca808522457dd95ee8fc1fbcdbb602efbe/lwjgl-platform-2.9.1-natives-windows.jar:/Users/maruku/.gradle/caches/modules-2/files-2.1/org.lwjgl.lwjgl/lwjgl-platform/2.9.1/aa9aae879af8eb378e22cfc64db56ec2ca9a44d1/lwjgl-platform-2.9.1-natives-linux.jar:/Users/maruku/.gradle/caches/modules-2/files-2.1/org.lwjgl.lwjgl/lwjgl-platform/2.9.1/2d12c83fdfbc04ecabf02c7bc8cc54d034f0daac/lwjgl-platform-2.9.1-natives-osx.jar:/Users/maruku/Documents/GitHub/vaginafart15/build/libs/vaginafart15-1.0.0-ALPHA.jar
[16:14:20] [main/DEBUG] [FML/]: Java library path at launch is /Users/maruku/Library/Java/Extensions:/Library/Java/Extensions:/Network/Library/Java/Extensions:/System/Library/Java/Extensions:/usr/lib/java:.
[16:14:20] [main/INFO] [FML/]: Managed to load a deobfuscated Minecraft name- we are in a deobfuscated environment. Skipping runtime deobfuscation
[16:14:20] [main/DEBUG] [FML/]: Instantiating coremod class FMLCorePlugin
[16:14:20] [main/DEBUG] [FML/]: Added access transformer class cpw.mods.fml.common.asm.transformers.AccessTransformer to enqueued access transformers
[16:14:20] [main/DEBUG] [FML/]: Enqueued coremod FMLCorePlugin
[16:14:20] [main/DEBUG] [FML/]: Instantiating coremod class FMLForgePlugin
[16:14:20] [main/DEBUG] [FML/]: Added access transformer class net.minecraftforge.transformers.ForgeAccessTransformer to enqueued access transformers
[16:14:20] [main/DEBUG] [FML/]: Enqueued coremod FMLForgePlugin
[16:14:20] [main/DEBUG] [FML/]: All fundamental core mods are successfully located
[16:14:20] [main/DEBUG] [FML/]: Attempting to load commandline specified mods, relative to /Users/maruku/Documents/GitHub/vaginafart15/eclipse/.
[16:14:20] [main/DEBUG] [FML/]: Discovering coremods
[16:14:20] [main/INFO] [LaunchWrapper/]: Calling tweak class net.minecraftforge.gradle.tweakers.CoremodTweaker
[16:14:20] [main/INFO] [GradleStart/]: Injecting location in coremod cpw.mods.fml.relauncher.FMLCorePlugin
[16:14:20] [main/INFO] [GradleStart/]: Injecting location in coremod net.minecraftforge.classloading.FMLForgePlugin
[16:14:20] [main/INFO] [LaunchWrapper/]: Loading tweak class name cpw.mods.fml.common.launcher.FMLInjectionAndSortingTweaker
[16:14:20] [main/INFO] [LaunchWrapper/]: Loading tweak class name cpw.mods.fml.common.launcher.FMLDeobfTweaker
[16:14:20] [main/INFO] [LaunchWrapper/]: Loading tweak class name net.minecraftforge.gradle.tweakers.AccessTransformerTweaker
[16:14:20] [main/INFO] [LaunchWrapper/]: Calling tweak class cpw.mods.fml.common.launcher.FMLInjectionAndSortingTweaker
[16:14:20] [main/INFO] [LaunchWrapper/]: Calling tweak class cpw.mods.fml.common.launcher.FMLInjectionAndSortingTweaker
[16:14:20] [main/INFO] [LaunchWrapper/]: Calling tweak class cpw.mods.fml.relauncher.CoreModManager$FMLPluginWrapper
[16:14:20] [main/DEBUG] [FML/]: Injecting coremod FMLCorePlugin {cpw.mods.fml.relauncher.FMLCorePlugin} class transformers
[16:14:20] [main/TRACE] [FML/]: Registering transformer cpw.mods.fml.common.asm.transformers.MarkerTransformer
[16:14:20] [main/TRACE] [FML/]: Registering transformer cpw.mods.fml.common.asm.transformers.SideTransformer
[16:14:20] [main/TRACE] [FML/]: Registering transformer cpw.mods.fml.common.asm.transformers.EventSubscriptionTransformer
[16:14:20] [main/DEBUG] [FML/]: Injection complete
[16:14:20] [main/DEBUG] [FML/]: Running coremod plugin for FMLCorePlugin {cpw.mods.fml.relauncher.FMLCorePlugin}
[16:14:20] [main/DEBUG] [FML/]: Running coremod plugin FMLCorePlugin
[16:14:20] [main/ERROR] [FML/]: The binary patch set is missing. Either you are in a development environment, or things are not going to work!
[16:14:21] [main/ERROR] [FML/]: FML appears to be missing any signature data. This is not a good thing
[16:14:21] [main/DEBUG] [FML/]: Coremod plugin class FMLCorePlugin run successfully
[16:14:21] [main/INFO] [LaunchWrapper/]: Calling tweak class cpw.mods.fml.relauncher.CoreModManager$FMLPluginWrapper
[16:14:21] [main/DEBUG] [FML/]: Injecting coremod FMLForgePlugin {net.minecraftforge.classloading.FMLForgePlugin} class transformers
[16:14:21] [main/TRACE] [FML/]: Registering transformer net.minecraftforge.classloading.FluidIdTransformer
[16:14:21] [main/DEBUG] [FML/]: Injection complete
[16:14:21] [main/DEBUG] [FML/]: Running coremod plugin for FMLForgePlugin {net.minecraftforge.classloading.FMLForgePlugin}
[16:14:21] [main/DEBUG] [FML/]: Running coremod plugin FMLForgePlugin
[16:14:21] [main/DEBUG] [FML/]: Coremod plugin class FMLForgePlugin run successfully
[16:14:21] [main/INFO] [LaunchWrapper/]: Calling tweak class cpw.mods.fml.common.launcher.FMLDeobfTweaker
[16:14:21] [main/DEBUG] [FML/]: Loaded 57 rules from AccessTransformer config file fml_at.cfg
[16:14:21] [main/DEBUG] [FML/]: Loaded 89 rules from AccessTransformer config file forge_at.cfg
[16:14:21] [main/DEBUG] [FML/]: Validating minecraft
[16:14:21] [main/DEBUG] [FML/]: Minecraft validated, launching...
[16:14:21] [main/INFO] [LaunchWrapper/]: Calling tweak class net.minecraftforge.gradle.tweakers.AccessTransformerTweaker
[16:14:22] [main/INFO] [LaunchWrapper/]: Loading tweak class name cpw.mods.fml.common.launcher.TerminalTweaker
[16:14:22] [main/INFO] [LaunchWrapper/]: Calling tweak class cpw.mods.fml.common.launcher.TerminalTweaker
[16:14:22] [main/INFO] [LaunchWrapper/]: Launching wrapped minecraft {net.minecraft.server.MinecraftServer}
[16:14:32] [main/WARN] [FML/]: =============================================================
[16:14:32] [main/WARN] [FML/]: MOD HAS DIRECT REFERENCE System.exit() THIS IS NOT ALLOWED REROUTING TO FML!
[16:14:32] [main/WARN] [FML/]: Offendor: net/minecraft/server/gui/MinecraftServerGui$1.windowClosing(Ljava/awt/event/WindowEvent;)V
[16:14:32] [main/WARN] [FML/]: Use FMLCommonHandler.exitJava instead
[16:14:32] [main/WARN] [FML/]: =============================================================
[16:14:32] [Server thread/INFO] [MinecraftForge/]: Attempting early MinecraftForge initialization
[16:14:32] [Server thread/INFO] [FML/]: MinecraftForge v10.13.4.1614 Initialized
[16:14:32] [Server thread/INFO] [FML/]: Replaced 183 ore recipies
[16:14:32] [Server thread/INFO] [MinecraftForge/]: Completed early MinecraftForge initialization
[16:14:32] [Server thread/DEBUG] [FML/]: File /Users/maruku/Documents/GitHub/vaginafart15/eclipse/config/injectedDependencies.json not found. No dependencies injected
[16:14:32] [Server thread/DEBUG] [FML/]: Building injected Mod Containers [cpw.mods.fml.common.FMLContainer, net.minecraftforge.common.ForgeModContainer]
[16:14:32] [Server thread/DEBUG] [FML/]: Attempting to load mods contained in the minecraft jar file and associated classes
[16:14:32] [Server thread/DEBUG] [FML/]: Found a minecraft related directory at /Users/maruku/.gradle/caches/minecraft/net/minecraftforge/forge/1.7.10-10.13.4.1614-1.7.10/start, examining for mod candidates
[16:14:33] [Server thread/DEBUG] [FML/]: Found a minecraft related file at /Users/maruku/.gradle/caches/minecraft/net/minecraftforge/forge/1.7.10-10.13.4.1614-1.7.10/forgeSrc-1.7.10-10.13.4.1614-1.7.10.jar, examining for mod candidates
[16:14:33] [Server thread/DEBUG] [FML/]: Found a minecraft related file at /Users/maruku/.gradle/caches/modules-2/files-2.1/net.minecraft/launchwrapper/1.12/111e7bea9c968cdb3d06ef4632bf7ff0824d0f36/launchwrapper-1.12.jar, examining for mod candidates
[16:14:33] [Server thread/DEBUG] [FML/]: Found a minecraft related file at /Users/maruku/.gradle/caches/modules-2/files-2.1/com.google.code.findbugs/jsr305/1.3.9/40719ea6961c0cb6afaeb6a921eaa1f6afd4cfdf/jsr305-1.3.9.jar, examining for mod candidates
[16:14:33] [Server thread/DEBUG] [FML/]: Found a minecraft related file at /Users/maruku/.gradle/caches/modules-2/files-2.1/org.ow2.asm/asm-debug-all/5.0.3/f9e364ae2a66ce2a543012a4668856e84e5dab74/asm-debug-all-5.0.3.jar, examining for mod candidates
[16:14:33] [Server thread/DEBUG] [FML/]: Found a minecraft related file at /Users/maruku/.gradle/caches/modules-2/files-2.1/com.typesafe.akka/akka-actor_2.11/2.3.3/ed62e9fc709ca0f2ff1a3220daa8b70a2870078e/akka-actor_2.11-2.3.3.jar, examining for mod candidates
[16:14:33] [Server thread/DEBUG] [FML/]: Found a minecraft related file at /Users/maruku/.gradle/caches/modules-2/files-2.1/com.typesafe/config/1.2.1/f771f71fdae3df231bcd54d5ca2d57f0bf93f467/config-1.2.1.jar, examining for mod candidates
[16:14:33] [Server thread/DEBUG] [FML/]: Found a minecraft related file at /Users/maruku/.gradle/caches/modules-2/files-2.1/org.scala-lang/scala-actors-migration_2.11/1.1.0/dfa8bc42b181d5b9f1a5dd147f8ae308b893eb6f/scala-actors-migration_2.11-1.1.0.jar, examining for mod candidates
[16:14:33] [Server thread/DEBUG] [FML/]: Found a minecraft related file at /Users/maruku/.gradle/caches/modules-2/files-2.1/org.scala-lang/scala-compiler/2.11.1/56ea2e6c025e0821f28d73ca271218b8dd04926a/scala-compiler-2.11.1.jar, examining for mod candidates
[16:14:33] [Server thread/DEBUG] [FML/]: Found a minecraft related file at /Users/maruku/.gradle/caches/modules-2/files-2.1/org.scala-lang.plugins/scala-continuations-library_2.11/1.0.2/e517c53a7e9acd6b1668c5a35eccbaa3bab9aac/scala-continuations-library_2.11-1.0.2.jar, examining for mod candidates
[16:14:33] [Server thread/DEBUG] [FML/]: Found a minecraft related file at /Users/maruku/.gradle/caches/modules-2/files-2.1/org.scala-lang.plugins/scala-continuations-plugin_2.11.1/1.0.2/f361a3283452c57fa30c1ee69448995de23c60f7/scala-continuations-plugin_2.11.1-1.0.2.jar, examining for mod candidates
[16:14:33] [Server thread/DEBUG] [FML/]: Found a minecraft related file at /Users/maruku/.gradle/caches/modules-2/files-2.1/org.scala-lang/scala-library/2.11.1/e11da23da3eabab9f4777b9220e60d44c1aab6a/scala-library-2.11.1.jar, examining for mod candidates
[16:14:33] [Server thread/DEBUG] [FML/]: Found a minecraft related file at /Users/maruku/.gradle/caches/modules-2/files-2.1/org.scala-lang/scala-parser-combinators_2.11/1.0.1/f05d7345bf5a58924f2837c6c1f4d73a938e1ff0/scala-parser-combinators_2.11-1.0.1.jar, examining for mod candidates
[16:14:33] [Server thread/DEBUG] [FML/]: Found a minecraft related file at /Users/maruku/.gradle/caches/modules-2/files-2.1/org.scala-lang/scala-reflect/2.11.1/6580347e61cc7f8e802941e7fde40fa83b8badeb/scala-reflect-2.11.1.jar, examining for mod candidates
[16:14:33] [Server thread/DEBUG] [FML/]: Found a minecraft related file at /Users/maruku/.gradle/caches/modules-2/files-2.1/org.scala-lang/scala-swing_2.11/1.0.1/b1cdd92bd47b1e1837139c1c53020e86bb9112ae/scala-swing_2.11-1.0.1.jar, examining for mod candidates
[16:14:33] [Server thread/DEBUG] [FML/]: Found a minecraft related file at /Users/maruku/.gradle/caches/modules-2/files-2.1/org.scala-lang/scala-xml_2.11/1.0.2/7a80ec00aec122fba7cd4e0d4cdd87ff7e4cb6d0/scala-xml_2.11-1.0.2.jar, examining for mod candidates
[16:14:33] [Server thread/DEBUG] [FML/]: Found a minecraft related file at /Users/maruku/.gradle/caches/modules-2/files-2.1/net.sf.jopt-simple/jopt-simple/4.5/6065cc95c661255349c1d0756657be17c29a4fd3/jopt-simple-4.5.jar, examining for mod candidates
[16:14:33] [Server thread/DEBUG] [FML/]: Found a minecraft related file at /Users/maruku/.gradle/caches/modules-2/files-2.1/lzma/lzma/0.0.1/521616dc7487b42bef0e803bd2fa3faf668101d7/lzma-0.0.1.jar, examining for mod candidates
[16:14:33] [Server thread/DEBUG] [FML/]: Found a minecraft related file at /Users/maruku/.gradle/caches/modules-2/files-2.1/com.mojang/realms/1.3.5/807ae355ee63583becd7ea60e76aab1532bb42e/realms-1.3.5.jar, examining for mod candidates
[16:14:33] [Server thread/DEBUG] [FML/]: Found a minecraft related file at /Users/maruku/.gradle/caches/modules-2/files-2.1/org.apache.commons/commons-compress/1.8.1/a698750c16740fd5b3871425f4cb3bbaa87f529d/commons-compress-1.8.1.jar, examining for mod candidates
[16:14:33] [Server thread/DEBUG] [FML/]: Found a minecraft related file at /Users/maruku/.gradle/caches/modules-2/files-2.1/org.apache.httpcomponents/httpclient/4.3.3/18f4247ff4572a074444572cee34647c43e7c9c7/httpclient-4.3.3.jar, examining for mod candidates
[16:14:33] [Server thread/DEBUG] [FML/]: Found a minecraft related file at /Users/maruku/.gradle/caches/modules-2/files-2.1/commons-logging/commons-logging/1.1.3/f6f66e966c70a83ffbdb6f17a0919eaf7c8aca7f/commons-logging-1.1.3.jar, examining for mod candidates
[16:14:33] [Server thread/DEBUG] [FML/]: Found a minecraft related file at /Users/maruku/.gradle/caches/modules-2/files-2.1/org.apache.httpcomponents/httpcore/4.3.2/31fbbff1ddbf98f3aa7377c94d33b0447c646b6e/httpcore-4.3.2.jar, examining for mod candidates
[16:14:33] [Server thread/DEBUG] [FML/]: Found a minecraft related file at /Users/maruku/.gradle/caches/modules-2/files-2.1/java3d/vecmath/1.3.1/a0ae4f51da409fa0c20fa0ca59e6bbc9413ae71d/vecmath-1.3.1.jar, examining for mod candidates
[16:14:33] [Server thread/DEBUG] [FML/]: Found a minecraft related file at /Users/maruku/.gradle/caches/modules-2/files-2.1/net.sf.trove4j/trove4j/3.0.3/42ccaf4761f0dfdfa805c9e340d99a755907e2dd/trove4j-3.0.3.jar, examining for mod candidates
[16:14:33] [Server thread/DEBUG] [FML/]: Found a minecraft related file at /Users/maruku/.gradle/caches/modules-2/files-2.1/com.ibm.icu/icu4j-core-mojang/51.2/63d216a9311cca6be337c1e458e587f99d382b84/icu4j-core-mojang-51.2.jar, examining for mod candidates
[16:14:33] [Server thread/DEBUG] [FML/]: Found a minecraft related file at /Users/maruku/.gradle/caches/modules-2/files-2.1/com.paulscode/codecjorbis/20101023/c73b5636faf089d9f00e8732a829577de25237ee/codecjorbis-20101023.jar, examining for mod candidates
[16:14:33] [Server thread/DEBUG] [FML/]: Found a minecraft related file at /Users/maruku/.gradle/caches/modules-2/files-2.1/com.paulscode/codecwav/20101023/12f031cfe88fef5c1dd36c563c0a3a69bd7261da/codecwav-20101023.jar, examining for mod candidates
[16:14:33] [Server thread/DEBUG] [FML/]: Found a minecraft related file at /Users/maruku/.gradle/caches/modules-2/files-2.1/com.paulscode/libraryjavasound/20101123/5c5e304366f75f9eaa2e8cca546a1fb6109348b3/libraryjavasound-20101123.jar, examining for mod candidates
[16:14:33] [Server thread/DEBUG] [FML/]: Found a minecraft related file at /Users/maruku/.gradle/caches/modules-2/files-2.1/com.paulscode/librarylwjglopenal/20100824/73e80d0794c39665aec3f62eee88ca91676674ef/librarylwjglopenal-20100824.jar, examining for mod candidates
[16:14:33] [Server thread/DEBUG] [FML/]: Found a minecraft related file at /Users/maruku/.gradle/caches/modules-2/files-2.1/com.paulscode/soundsystem/20120107/419c05fe9be71f792b2d76cfc9b67f1ed0fec7f6/soundsystem-20120107.jar, examining for mod candidates
[16:14:33] [Server thread/DEBUG] [FML/]: Found a minecraft related file at /Users/maruku/.gradle/caches/modules-2/files-2.1/io.netty/netty-all/4.0.10.Final/9e50bd52ffe257a0e2cd8d971688d6ce7d174325/netty-all-4.0.10.Final.jar, examining for mod candidates
[16:14:33] [Server thread/DEBUG] [FML/]: Found a minecraft related file at /Users/maruku/.gradle/caches/modules-2/files-2.1/com.google.guava/guava/17.0/9c6ef172e8de35fd8d4d8783e4821e57cdef7445/guava-17.0.jar, examining for mod candidates
[16:14:33] [Server thread/DEBUG] [FML/]: Found a minecraft related file at /Users/maruku/.gradle/caches/modules-2/files-2.1/org.apache.commons/commons-lang3/3.3.2/90a3822c38ec8c996e84c16a3477ef632cbc87a3/commons-lang3-3.3.2.jar, examining for mod candidates
[16:14:33] [Server thread/DEBUG] [FML/]: Found a minecraft related file at /Users/maruku/.gradle/caches/modules-2/files-2.1/commons-io/commons-io/2.4/b1b6ea3b7e4aa4f492509a4952029cd8e48019ad/commons-io-2.4.jar, examining for mod candidates
[16:14:33] [Server thread/DEBUG] [FML/]: Found a minecraft related file at /Users/maruku/.gradle/caches/modules-2/files-2.1/commons-codec/commons-codec/1.9/9ce04e34240f674bc72680f8b843b1457383161a/commons-codec-1.9.jar, examining for mod candidates
[16:14:33] [Server thread/DEBUG] [FML/]: Found a minecraft related file at /Users/maruku/.gradle/caches/modules-2/files-2.1/net.java.jinput/jinput/2.0.5/39c7796b469a600f72380316f6b1f11db6c2c7c4/jinput-2.0.5.jar, examining for mod candidates
[16:14:33] [Server thread/DEBUG] [FML/]: Found a minecraft related file at /Users/maruku/.gradle/caches/modules-2/files-2.1/net.java.jutils/jutils/1.0.0/e12fe1fda814bd348c1579329c86943d2cd3c6a6/jutils-1.0.0.jar, examining for mod candidates
[16:14:33] [Server thread/DEBUG] [FML/]: Found a minecraft related file at /Users/maruku/.gradle/caches/modules-2/files-2.1/com.google.code.gson/gson/2.2.4/a60a5e993c98c864010053cb901b7eab25306568/gson-2.2.4.jar, examining for mod candidates
[16:14:33] [Server thread/DEBUG] [FML/]: Found a minecraft related file at /Users/maruku/.gradle/caches/modules-2/files-2.1/com.mojang/authlib/1.5.16/ef1582b11fd0943d069cdcb72e99008ac209a283/authlib-1.5.16.jar, examining for mod candidates
[16:14:33] [Server thread/DEBUG] [FML/]: Found a minecraft related file at /Users/maruku/.gradle/caches/modules-2/files-2.1/org.apache.logging.log4j/log4j-api/2.0-beta9/1dd66e68cccd907880229f9e2de1314bd13ff785/log4j-api-2.0-beta9.jar, examining for mod candidates
[16:14:33] [Server thread/DEBUG] [FML/]: Found a minecraft related file at /Users/maruku/.gradle/caches/modules-2/files-2.1/org.apache.logging.log4j/log4j-core/2.0-beta9/678861ba1b2e1fccb594bb0ca03114bb05da9695/log4j-core-2.0-beta9.jar, examining for mod candidates
[16:14:33] [Server thread/DEBUG] [FML/]: Found a minecraft related file at /Users/maruku/.gradle/caches/modules-2/files-2.1/org.lwjgl.lwjgl/lwjgl/2.9.1/f58c5aabcef0e41718a564be9f8e412fff8db847/lwjgl-2.9.1.jar, examining for mod candidates
[16:14:33] [Server thread/DEBUG] [FML/]: Found a minecraft related file at /Users/maruku/.gradle/caches/modules-2/files-2.1/org.lwjgl.lwjgl/lwjgl_util/2.9.1/290d7ba8a1bd9566f5ddf16ad06f09af5ec9b20e/lwjgl_util-2.9.1.jar, examining for mod candidates
[16:14:33] [Server thread/DEBUG] [FML/]: Found a minecraft related file at /Users/maruku/.gradle/caches/modules-2/files-2.1/tv.twitch/twitch/5.16/1f55f009c61637c10c0acfb8b5ffc600f30044b4/twitch-5.16.jar, examining for mod candidates
[16:14:33] [Server thread/DEBUG] [FML/]: Found a minecraft related file at /Users/maruku/.gradle/caches/modules-2/files-2.1/org.scala-lang/scala-actors/2.11.0/8ccfb6541de179bb1c4d45cf414acee069b7f78b/scala-actors-2.11.0.jar, examining for mod candidates
[16:14:33] [Server thread/DEBUG] [FML/]: Found a minecraft related file at /Users/maruku/.gradle/caches/modules-2/files-2.1/org.scala-lang.modules/scala-xml_2.11/1.0.2/820fbca7e524b530fdadc594c39d49a21ea0337e/scala-xml_2.11-1.0.2.jar, examining for mod candidates
[16:14:33] [Server thread/DEBUG] [FML/]: Found a minecraft related file at /Users/maruku/.gradle/caches/modules-2/files-2.1/org.scala-lang.modules/scala-parser-combinators_2.11/1.0.1/f05d7345bf5a58924f2837c6c1f4d73a938e1ff0/scala-parser-combinators_2.11-1.0.1.jar, examining for mod candidates
[16:14:33] [Server thread/DEBUG] [FML/]: Found a minecraft related file at /Users/maruku/.gradle/caches/modules-2/files-2.1/net.java.jinput/jinput-platform/2.0.5/7ff832a6eb9ab6a767f1ade2b548092d0fa64795/jinput-platform-2.0.5-natives-linux.jar, examining for mod candidates
[16:14:33] [Server thread/DEBUG] [FML/]: Found a minecraft related file at /Users/maruku/.gradle/caches/modules-2/files-2.1/net.java.jinput/jinput-platform/2.0.5/385ee093e01f587f30ee1c8a2ee7d408fd732e16/jinput-platform-2.0.5-natives-windows.jar, examining for mod candidates
[16:14:33] [Server thread/DEBUG] [FML/]: Found a minecraft related file at /Users/maruku/.gradle/caches/modules-2/files-2.1/net.java.jinput/jinput-platform/2.0.5/53f9c919f34d2ca9de8c51fc4e1e8282029a9232/jinput-platform-2.0.5-natives-osx.jar, examining for mod candidates
[16:14:33] [Server thread/DEBUG] [FML/]: Found a minecraft related file at /Users/maruku/.gradle/caches/modules-2/files-2.1/tv.twitch/twitch-platform/5.16/7c6affe439099806a4f552da14c42f9d643d8b23/twitch-platform-5.16-natives-windows-32.jar, examining for mod candidates
[16:14:33] [Server thread/DEBUG] [FML/]: Found a minecraft related file at /Users/maruku/.gradle/caches/modules-2/files-2.1/tv.twitch/twitch-platform/5.16/39d0c3d363735b4785598e0e7fbf8297c706a9f9/twitch-platform-5.16-natives-windows-64.jar, examining for mod candidates
[16:14:33] [Server thread/DEBUG] [FML/]: Found a minecraft related file at /Users/maruku/.gradle/caches/modules-2/files-2.1/tv.twitch/twitch-platform/5.16/62503ee712766cf77f97252e5902786fd834b8c5/twitch-platform-5.16-natives-osx.jar, examining for mod candidates
[16:14:33] [Server thread/DEBUG] [FML/]: Found a minecraft related file at /Users/maruku/.gradle/caches/modules-2/files-2.1/tv.twitch/twitch-external-platform/4.5/18215140f010c05b9f86ef6f0f8871954d2ccebf/twitch-external-platform-4.5-natives-windows-32.jar, examining for mod candidates
[16:14:33] [Server thread/DEBUG] [FML/]: Found a minecraft related file at /Users/maruku/.gradle/caches/modules-2/files-2.1/tv.twitch/twitch-external-platform/4.5/c3cde57891b935d41b6680a9c5e1502eeab76d86/twitch-external-platform-4.5-natives-windows-64.jar, examining for mod candidates
[16:14:33] [Server thread/DEBUG] [FML/]: Found a minecraft related file at /Users/maruku/.gradle/caches/modules-2/files-2.1/org.lwjgl.lwjgl/lwjgl-platform/2.9.1/4c517eca808522457dd95ee8fc1fbcdbb602efbe/lwjgl-platform-2.9.1-natives-windows.jar, examining for mod candidates
[16:14:33] [Server thread/DEBUG] [FML/]: Found a minecraft related file at /Users/maruku/.gradle/caches/modules-2/files-2.1/org.lwjgl.lwjgl/lwjgl-platform/2.9.1/aa9aae879af8eb378e22cfc64db56ec2ca9a44d1/lwjgl-platform-2.9.1-natives-linux.jar, examining for mod candidates
[16:14:33] [Server thread/DEBUG] [FML/]: Found a minecraft related file at /Users/maruku/.gradle/caches/modules-2/files-2.1/org.lwjgl.lwjgl/lwjgl-platform/2.9.1/2d12c83fdfbc04ecabf02c7bc8cc54d034f0daac/lwjgl-platform-2.9.1-natives-osx.jar, examining for mod candidates
[16:14:33] [Server thread/DEBUG] [FML/]: Found a minecraft related file at /Users/maruku/Documents/GitHub/vaginafart15/build/libs/vaginafart15-1.0.0-ALPHA.jar, examining for mod candidates
[16:14:33] [Server thread/DEBUG] [FML/]: Minecraft jar mods loaded successfully
[16:14:33] [Server thread/INFO] [FML/]: Found 0 mods from the command line. Injecting into mod discoverer
[16:14:33] [Server thread/INFO] [FML/]: Searching /Users/maruku/Documents/GitHub/vaginafart15/eclipse/mods for mods
[16:14:33] [Server thread/DEBUG] [FML/]: Examining directory start for potential mods
[16:14:33] [Server thread/DEBUG] [FML/]: No mcmod.info file found in directory start
[16:14:33] [Server thread/TRACE] [FML/]: Recursing into package net
[16:14:33] [Server thread/TRACE] [FML/]: Recursing into package net.minecraftforge
[16:14:33] [Server thread/TRACE] [FML/]: Recursing into package net.minecraftforge.gradle
[16:14:33] [Server thread/TRACE] [FML/]: Recursing into package net.minecraftforge.gradle.tweakers
[16:14:33] [Server thread/DEBUG] [FML/]: Examining file forgeSrc-1.7.10-10.13.4.1614-1.7.10.jar for potential mods
[16:14:33] [Server thread/DEBUG] [FML/]: The mod container forgeSrc-1.7.10-10.13.4.1614-1.7.10.jar appears to be missing an mcmod.info file
[16:14:33] [Server thread/DEBUG] [FML/]: Examining file launchwrapper-1.12.jar for potential mods
[16:14:33] [Server thread/DEBUG] [FML/]: The mod container launchwrapper-1.12.jar appears to be missing an mcmod.info file
[16:14:33] [Server thread/DEBUG] [FML/]: Examining file jsr305-1.3.9.jar for potential mods
[16:14:33] [Server thread/DEBUG] [FML/]: The mod container jsr305-1.3.9.jar appears to be missing an mcmod.info file
[16:14:33] [Server thread/DEBUG] [FML/]: Examining file asm-debug-all-5.0.3.jar for potential mods
[16:14:33] [Server thread/DEBUG] [FML/]: The mod container asm-debug-all-5.0.3.jar appears to be missing an mcmod.info file
[16:14:34] [Server thread/DEBUG] [FML/]: Examining file akka-actor_2.11-2.3.3.jar for potential mods
[16:14:34] [Server thread/DEBUG] [FML/]: The mod container akka-actor_2.11-2.3.3.jar appears to be missing an mcmod.info file
[16:14:34] [Server thread/DEBUG] [FML/]: Examining file config-1.2.1.jar for potential mods
[16:14:34] [Server thread/DEBUG] [FML/]: The mod container config-1.2.1.jar appears to be missing an mcmod.info file
[16:14:34] [Server thread/DEBUG] [FML/]: Examining file scala-actors-migration_2.11-1.1.0.jar for potential mods
[16:14:34] [Server thread/DEBUG] [FML/]: The mod container scala-actors-migration_2.11-1.1.0.jar appears to be missing an mcmod.info file
[16:14:34] [Server thread/DEBUG] [FML/]: Examining file scala-compiler-2.11.1.jar for potential mods
[16:14:34] [Server thread/DEBUG] [FML/]: The mod container scala-compiler-2.11.1.jar appears to be missing an mcmod.info file
[16:14:35] [Server thread/DEBUG] [FML/]: Examining file scala-continuations-library_2.11-1.0.2.jar for potential mods
[16:14:35] [Server thread/DEBUG] [FML/]: The mod container scala-continuations-library_2.11-1.0.2.jar appears to be missing an mcmod.info file
[16:14:35] [Server thread/DEBUG] [FML/]: Examining file scala-continuations-plugin_2.11.1-1.0.2.jar for potential mods
[16:14:35] [Server thread/DEBUG] [FML/]: The mod container scala-continuations-plugin_2.11.1-1.0.2.jar appears to be missing an mcmod.info file
[16:14:35] [Server thread/DEBUG] [FML/]: Examining file scala-library-2.11.1.jar for potential mods
[16:14:35] [Server thread/DEBUG] [FML/]: The mod container scala-library-2.11.1.jar appears to be missing an mcmod.info file
[16:14:36] [Server thread/DEBUG] [FML/]: Examining file scala-parser-combinators_2.11-1.0.1.jar for potential mods
[16:14:36] [Server thread/DEBUG] [FML/]: The mod container scala-parser-combinators_2.11-1.0.1.jar appears to be missing an mcmod.info file
[16:14:36] [Server thread/DEBUG] [FML/]: Examining file scala-reflect-2.11.1.jar for potential mods
[16:14:36] [Server thread/DEBUG] [FML/]: The mod container scala-reflect-2.11.1.jar appears to be missing an mcmod.info file
[16:14:37] [Server thread/DEBUG] [FML/]: Examining file scala-swing_2.11-1.0.1.jar for potential mods
[16:14:37] [Server thread/DEBUG] [FML/]: The mod container scala-swing_2.11-1.0.1.jar appears to be missing an mcmod.info file
[16:14:37] [Server thread/DEBUG] [FML/]: Examining file scala-xml_2.11-1.0.2.jar for potential mods
[16:14:37] [Server thread/DEBUG] [FML/]: The mod container scala-xml_2.11-1.0.2.jar appears to be missing an mcmod.info file
[16:14:37] [Server thread/DEBUG] [FML/]: Examining file jopt-simple-4.5.jar for potential mods
[16:14:37] [Server thread/DEBUG] [FML/]: The mod container jopt-simple-4.5.jar appears to be missing an mcmod.info file
[16:14:37] [Server thread/DEBUG] [FML/]: Examining file lzma-0.0.1.jar for potential mods
[16:14:37] [Server thread/DEBUG] [FML/]: The mod container lzma-0.0.1.jar appears to be missing an mcmod.info file
[16:14:37] [Server thread/DEBUG] [FML/]: Examining file realms-1.3.5.jar for potential mods
[16:14:37] [Server thread/DEBUG] [FML/]: The mod container realms-1.3.5.jar appears to be missing an mcmod.info file
[16:14:37] [Server thread/DEBUG] [FML/]: Examining file commons-compress-1.8.1.jar for potential mods
[16:14:37] [Server thread/DEBUG] [FML/]: The mod container commons-compress-1.8.1.jar appears to be missing an mcmod.info file
[16:14:37] [Server thread/DEBUG] [FML/]: Examining file httpclient-4.3.3.jar for potential mods
[16:14:37] [Server thread/DEBUG] [FML/]: The mod container httpclient-4.3.3.jar appears to be missing an mcmod.info file
[16:14:37] [Server thread/DEBUG] [FML/]: Examining file commons-logging-1.1.3.jar for potential mods
[16:14:37] [Server thread/DEBUG] [FML/]: The mod container commons-logging-1.1.3.jar appears to be missing an mcmod.info file
[16:14:37] [Server thread/DEBUG] [FML/]: Examining file httpcore-4.3.2.jar for potential mods
[16:14:37] [Server thread/DEBUG] [FML/]: The mod container httpcore-4.3.2.jar appears to be missing an mcmod.info file
[16:14:37] [Server thread/DEBUG] [FML/]: Examining file vecmath-1.3.1.jar for potential mods
[16:14:37] [Server thread/DEBUG] [FML/]: The mod container vecmath-1.3.1.jar appears to be missing an mcmod.info file
[16:14:37] [Server thread/DEBUG] [FML/]: Examining file trove4j-3.0.3.jar for potential mods
[16:14:37] [Server thread/DEBUG] [FML/]: The mod container trove4j-3.0.3.jar appears to be missing an mcmod.info file
[16:14:38] [Server thread/DEBUG] [FML/]: Examining file icu4j-core-mojang-51.2.jar for potential mods
[16:14:38] [Server thread/DEBUG] [FML/]: The mod container icu4j-core-mojang-51.2.jar appears to be missing an mcmod.info file
[16:14:38] [Server thread/DEBUG] [FML/]: Examining file codecjorbis-20101023.jar for potential mods
[16:14:38] [Server thread/DEBUG] [FML/]: The mod container codecjorbis-20101023.jar appears to be missing an mcmod.info file
[16:14:38] [Server thread/DEBUG] [FML/]: Examining file codecwav-20101023.jar for potential mods
[16:14:38] [Server thread/DEBUG] [FML/]: The mod container codecwav-20101023.jar appears to be missing an mcmod.info file
[16:14:38] [Server thread/DEBUG] [FML/]: Examining file libraryjavasound-20101123.jar for potential mods
[16:14:38] [Server thread/DEBUG] [FML/]: The mod container libraryjavasound-20101123.jar appears to be missing an mcmod.info file
[16:14:38] [Server thread/DEBUG] [FML/]: Examining file librarylwjglopenal-20100824.jar for potential mods
[16:14:38] [Server thread/DEBUG] [FML/]: The mod container librarylwjglopenal-20100824.jar appears to be missing an mcmod.info file
[16:14:38] [Server thread/DEBUG] [FML/]: Examining file soundsystem-20120107.jar for potential mods
[16:14:38] [Server thread/DEBUG] [FML/]: The mod container soundsystem-20120107.jar appears to be missing an mcmod.info file
[16:14:38] [Server thread/DEBUG] [FML/]: Examining file netty-all-4.0.10.Final.jar for potential mods
[16:14:38] [Server thread/DEBUG] [FML/]: The mod container netty-all-4.0.10.Final.jar appears to be missing an mcmod.info file
[16:14:38] [Server thread/DEBUG] [FML/]: Examining file guava-17.0.jar for potential mods
[16:14:38] [Server thread/DEBUG] [FML/]: The mod container guava-17.0.jar appears to be missing an mcmod.info file
[16:14:39] [Server thread/DEBUG] [FML/]: Examining file commons-lang3-3.3.2.jar for potential mods
[16:14:39] [Server thread/DEBUG] [FML/]: The mod container commons-lang3-3.3.2.jar appears to be missing an mcmod.info file
[16:14:39] [Server thread/DEBUG] [FML/]: Examining file commons-io-2.4.jar for potential mods
[16:14:39] [Server thread/DEBUG] [FML/]: The mod container commons-io-2.4.jar appears to be missing an mcmod.info file
[16:14:39] [Server thread/DEBUG] [FML/]: Examining file commons-codec-1.9.jar for potential mods
[16:14:39] [Server thread/DEBUG] [FML/]: The mod container commons-codec-1.9.jar appears to be missing an mcmod.info file
[16:14:39] [Server thread/DEBUG] [FML/]: Examining file jinput-2.0.5.jar for potential mods
[16:14:39] [Server thread/DEBUG] [FML/]: The mod container jinput-2.0.5.jar appears to be missing an mcmod.info file
[16:14:39] [Server thread/DEBUG] [FML/]: Examining file jutils-1.0.0.jar for potential mods
[16:14:39] [Server thread/DEBUG] [FML/]: The mod container jutils-1.0.0.jar appears to be missing an mcmod.info file
[16:14:39] [Server thread/DEBUG] [FML/]: Examining file gson-2.2.4.jar for potential mods
[16:14:39] [Server thread/DEBUG] [FML/]: The mod container gson-2.2.4.jar appears to be missing an mcmod.info file
[16:14:39] [Server thread/DEBUG] [FML/]: Examining file authlib-1.5.16.jar for potential mods
[16:14:39] [Server thread/DEBUG] [FML/]: The mod container authlib-1.5.16.jar appears to be missing an mcmod.info file
[16:14:39] [Server thread/DEBUG] [FML/]: Examining file log4j-api-2.0-beta9.jar for potential mods
[16:14:39] [Server thread/DEBUG] [FML/]: The mod container log4j-api-2.0-beta9.jar appears to be missing an mcmod.info file
[16:14:39] [Server thread/DEBUG] [FML/]: Examining file log4j-core-2.0-beta9.jar for potential mods
[16:14:39] [Server thread/DEBUG] [FML/]: The mod container log4j-core-2.0-beta9.jar appears to be missing an mcmod.info file
[16:14:39] [Server thread/DEBUG] [FML/]: Examining file lwjgl-2.9.1.jar for potential mods
[16:14:39] [Server thread/DEBUG] [FML/]: The mod container lwjgl-2.9.1.jar appears to be missing an mcmod.info file
[16:14:39] [Server thread/DEBUG] [FML/]: Examining file lwjgl_util-2.9.1.jar for potential mods
[16:14:39] [Server thread/DEBUG] [FML/]: The mod container lwjgl_util-2.9.1.jar appears to be missing an mcmod.info file
[16:14:39] [Server thread/DEBUG] [FML/]: Examining file twitch-5.16.jar for potential mods
[16:14:39] [Server thread/DEBUG] [FML/]: The mod container twitch-5.16.jar appears to be missing an mcmod.info file
[16:14:39] [Server thread/DEBUG] [FML/]: Examining file scala-actors-2.11.0.jar for potential mods
[16:14:39] [Server thread/DEBUG] [FML/]: The mod container scala-actors-2.11.0.jar appears to be missing an mcmod.info file
[16:14:39] [Server thread/DEBUG] [FML/]: Examining file scala-xml_2.11-1.0.2.jar for potential mods
[16:14:39] [Server thread/DEBUG] [FML/]: The mod container scala-xml_2.11-1.0.2.jar appears to be missing an mcmod.info file
[16:14:39] [Server thread/DEBUG] [FML/]: Examining file scala-parser-combinators_2.11-1.0.1.jar for potential mods
[16:14:39] [Server thread/DEBUG] [FML/]: The mod container scala-parser-combinators_2.11-1.0.1.jar appears to be missing an mcmod.info file
[16:14:39] [Server thread/DEBUG] [FML/]: Examining file jinput-platform-2.0.5-natives-linux.jar for potential mods
[16:14:39] [Server thread/DEBUG] [FML/]: The mod container jinput-platform-2.0.5-natives-linux.jar appears to be missing an mcmod.info file
[16:14:39] [Server thread/DEBUG] [FML/]: Examining file jinput-platform-2.0.5-natives-windows.jar for potential mods
[16:14:39] [Server thread/DEBUG] [FML/]: The mod container jinput-platform-2.0.5-natives-windows.jar appears to be missing an mcmod.info file
[16:14:39] [Server thread/DEBUG] [FML/]: Examining file jinput-platform-2.0.5-natives-osx.jar for potential mods
[16:14:39] [Server thread/DEBUG] [FML/]: The mod container jinput-platform-2.0.5-natives-osx.jar appears to be missing an mcmod.info file
[16:14:39] [Server thread/DEBUG] [FML/]: Examining file twitch-platform-5.16-natives-windows-32.jar for potential mods
[16:14:39] [Server thread/DEBUG] [FML/]: The mod container twitch-platform-5.16-natives-windows-32.jar appears to be missing an mcmod.info file
[16:14:39] [Server thread/DEBUG] [FML/]: Examining file twitch-platform-5.16-natives-windows-64.jar for potential mods
[16:14:39] [Server thread/DEBUG] [FML/]: The mod container twitch-platform-5.16-natives-windows-64.jar appears to be missing an mcmod.info file
[16:14:39] [Server thread/DEBUG] [FML/]: Examining file twitch-platform-5.16-natives-osx.jar for potential mods
[16:14:39] [Server thread/DEBUG] [FML/]: The mod container twitch-platform-5.16-natives-osx.jar appears to be missing an mcmod.info file
[16:14:39] [Server thread/DEBUG] [FML/]: Examining file twitch-external-platform-4.5-natives-windows-32.jar for potential mods
[16:14:39] [Server thread/DEBUG] [FML/]: The mod container twitch-external-platform-4.5-natives-windows-32.jar appears to be missing an mcmod.info file
[16:14:39] [Server thread/DEBUG] [FML/]: Examining file twitch-external-platform-4.5-natives-windows-64.jar for potential mods
[16:14:39] [Server thread/DEBUG] [FML/]: The mod container twitch-external-platform-4.5-natives-windows-64.jar appears to be missing an mcmod.info file
[16:14:39] [Server thread/DEBUG] [FML/]: Examining file lwjgl-platform-2.9.1-natives-windows.jar for potential mods
[16:14:39] [Server thread/DEBUG] [FML/]: The mod container lwjgl-platform-2.9.1-natives-windows.jar appears to be missing an mcmod.info file
[16:14:39] [Server thread/DEBUG] [FML/]: Examining file lwjgl-platform-2.9.1-natives-linux.jar for potential mods
[16:14:39] [Server thread/DEBUG] [FML/]: The mod container lwjgl-platform-2.9.1-natives-linux.jar appears to be missing an mcmod.info file
[16:14:39] [Server thread/DEBUG] [FML/]: Examining file lwjgl-platform-2.9.1-natives-osx.jar for potential mods
[16:14:39] [Server thread/DEBUG] [FML/]: The mod container lwjgl-platform-2.9.1-natives-osx.jar appears to be missing an mcmod.info file
[16:14:39] [Server thread/DEBUG] [FML/]: Examining file vaginafart15-1.0.0-ALPHA.jar for potential mods
[16:14:39] [Server thread/TRACE] [FML/]: Located mcmod.info file in file vaginafart15-1.0.0-ALPHA.jar
[16:14:39] [Server thread/ERROR] [FML/]: The mcmod.info file in vaginafart15-1.0.0-ALPHA.jar cannot be parsed as valid JSON. It will be ignored
com.google.gson.JsonSyntaxException: com.google.gson.stream.MalformedJsonException: Unterminated object at line 5 column 5
	at com.google.gson.internal.Streams.parse(Streams.java:56) ~[Streams.class:?]
	at com.google.gson.JsonParser.parse(JsonParser.java:84) ~[JsonParser.class:?]
	at com.google.gson.JsonParser.parse(JsonParser.java:59) ~[JsonParser.class:?]
	at cpw.mods.fml.common.MetadataCollection.from(MetadataCollection.java:55) [MetadataCollection.class:?]
	at cpw.mods.fml.common.discovery.JarDiscoverer.discover(JarDiscoverer.java:53) [JarDiscoverer.class:?]
	at cpw.mods.fml.common.discovery.ContainerType.findMods(ContainerType.java:42) [ContainerType.class:?]
	at cpw.mods.fml.common.discovery.ModCandidate.explore(ModCandidate.java:71) [ModCandidate.class:?]
	at cpw.mods.fml.common.discovery.ModDiscoverer.identifyMods(ModDiscoverer.java:131) [ModDiscoverer.class:?]
	at cpw.mods.fml.common.Loader.identifyMods(Loader.java:364) [Loader.class:?]
	at cpw.mods.fml.common.Loader.loadMods(Loader.java:489) [Loader.class:?]
	at cpw.mods.fml.server.FMLServerHandler.beginServerLoading(FMLServerHandler.java:87) [FMLServerHandler.class:?]
	at cpw.mods.fml.common.FMLCommonHandler.onServerStart(FMLCommonHandler.java:314) [FMLCommonHandler.class:?]
	at net.minecraft.server.dedicated.DedicatedServer.startServer(DedicatedServer.java:120) [DedicatedServer.class:?]
	at net.minecraft.server.MinecraftServer.run(MinecraftServer.java:445) [MinecraftServer.class:?]
	at net.minecraft.server.MinecraftServer$2.run(MinecraftServer.java:752) [MinecraftServer$2.class:?]
Caused by: com.google.gson.stream.MalformedJsonException: Unterminated object at line 5 column 5
	at com.google.gson.stream.JsonReader.syntaxError(JsonReader.java:1505) ~[JsonReader.class:?]
	at com.google.gson.stream.JsonReader.doPeek(JsonReader.java:480) ~[JsonReader.class:?]
	at com.google.gson.stream.JsonReader.hasNext(JsonReader.java:403) ~[JsonReader.class:?]
	at com.google.gson.internal.bind.TypeAdapters$25.read(TypeAdapters.java:666) ~[TypeAdapters$25.class:?]
	at com.google.gson.internal.bind.TypeAdapters$25.read(TypeAdapters.java:659) ~[TypeAdapters$25.class:?]
	at com.google.gson.internal.bind.TypeAdapters$25.read(TypeAdapters.java:642) ~[TypeAdapters$25.class:?]
	at com.google.gson.internal.Streams.parse(Streams.java:44) ~[Streams.class:?]
	... 14 more
[16:14:40] [Server thread/DEBUG] [FML/]: Identified a mod of type Lcpw/mods/fml/common/Mod; (be.maruku.vaginafart15.Main) - loading
[16:14:40] [Server thread/TRACE] [vf/]: Parsed dependency info : [] [] []
[16:14:40] [Server thread/INFO] [FML/]: Forge Mod Loader has identified 4 mods to load
[16:14:40] [Server thread/TRACE] [FML/]: Received a system property request ''
[16:14:40] [Server thread/TRACE] [FML/]: System property request managing the state of 0 mods
[16:14:40] [Server thread/DEBUG] [FML/]: After merging, found state information for 0 mods
[16:14:40] [Server thread/DEBUG] [FML/]: Found translations in forgeSrc-1.7.10-10.13.4.1614-1.7.10.jar [en_US, af_ZA, ar_SA, br_FR, ca_ES, cs_CZ, da_DK, de_DE, el_GR, en_US, es_ES, fa_IR, fi_FI, fr_FR, he_IL, hu_HU, it_IT, ja_JP, ko_KR, lt_LT, nb_NO, nl_NL, nn_NO, no_NO, pl_PL, pt_BR, pt_PT, ro_RO, ru_RU, sl_SI, sr_SP, sv_SE, tr_TR, uk_UA, vi_VN, zh_CN, zh_TW, en_US]
[16:14:40] [Server thread/DEBUG] [FML/]: Found translations in forgeSrc-1.7.10-10.13.4.1614-1.7.10.jar [en_US, af_ZA, ar_SA, br_FR, ca_ES, cs_CZ, da_DK, de_DE, el_GR, en_US, es_ES, fa_IR, fi_FI, fr_FR, he_IL, hu_HU, it_IT, ja_JP, ko_KR, lt_LT, nb_NO, nl_NL, nn_NO, no_NO, pl_PL, pt_BR, pt_PT, ro_RO, ru_RU, sl_SI, sr_SP, sv_SE, tr_TR, uk_UA, vi_VN, zh_CN, zh_TW, en_US]
[16:14:40] [Server thread/DEBUG] [vf/]: Enabling mod vf
[16:14:40] [Server thread/DEBUG] [FML/]: Found translations in vaginafart15-1.0.0-ALPHA.jar [en_GB, en_US, fr_FR]
[16:14:40] [Server thread/TRACE] [FML/]: Verifying mod requirements are satisfied
[16:14:40] [Server thread/TRACE] [FML/]: All mod requirements are satisfied
[16:14:40] [Server thread/TRACE] [FML/]: Sorting mods into an ordered list
[16:14:40] [Server thread/TRACE] [FML/]: Mod sorting completed successfully
[16:14:40] [Server thread/DEBUG] [FML/]: Mod sorting data
[16:14:40] [Server thread/DEBUG] [FML/]: 	vf(Vaginafart15:1.0.0-ALPHA): vaginafart15-1.0.0-ALPHA.jar ()
[16:14:40] [Server thread/TRACE] [mcp/mcp]: Sending event FMLConstructionEvent to mod mcp
[16:14:40] [Server thread/TRACE] [mcp/mcp]: Sent event FMLConstructionEvent to mod mcp
[16:14:40] [Server thread/DEBUG] [FML/]: Bar Step: Construction - Minecraft Coder Pack took 0.007s
[16:14:40] [Server thread/TRACE] [FML/FML]: Sending event FMLConstructionEvent to mod FML
[16:14:40] [Server thread/TRACE] [FML/FML]: Mod FML is using network checker : Invoking method checkModLists
[16:14:40] [Server thread/TRACE] [FML/FML]: Testing mod FML to verify it accepts its own version in a remote connection
[16:14:40] [Server thread/TRACE] [FML/FML]: The mod FML accepts its own version (7.10.99.99)
[16:14:40] [Server thread/INFO] [FML/FML]: Attempting connection with missing mods [mcp, FML, Forge, vf] at CLIENT
[16:14:40] [Server thread/INFO] [FML/FML]: Attempting connection with missing mods [mcp, FML, Forge, vf] at SERVER
[16:14:40] [Server thread/TRACE] [FML/FML]: Sent event FMLConstructionEvent to mod FML
[16:14:40] [Server thread/DEBUG] [FML/]: Bar Step: Construction - Forge Mod Loader took 0.310s
[16:14:40] [Server thread/TRACE] [Forge/Forge]: Sending event FMLConstructionEvent to mod Forge
[16:14:40] [Server thread/TRACE] [FML/Forge]: Mod Forge is using network checker : No network checking performed
[16:14:40] [Server thread/TRACE] [FML/Forge]: Testing mod Forge to verify it accepts its own version in a remote connection
[16:14:40] [Server thread/TRACE] [FML/Forge]: The mod Forge accepts its own version (10.13.4.1614)
[16:14:40] [Server thread/TRACE] [Forge/Forge]: Sent event FMLConstructionEvent to mod Forge
[16:14:40] [Server thread/DEBUG] [FML/]: Bar Step: Construction - Minecraft Forge took 0.006s
[16:14:40] [Server thread/TRACE] [vf/vf]: Sending event FMLConstructionEvent to mod vf
[16:14:40] [Server thread/TRACE] [FML/vf]: Mod vf is using network checker : Accepting version 1.0.0-ALPHA
[16:14:40] [Server thread/TRACE] [FML/vf]: Testing mod vf to verify it accepts its own version in a remote connection
[16:14:40] [Server thread/TRACE] [FML/vf]: The mod vf accepts its own version (1.0.0-ALPHA)
[16:14:40] [Server thread/DEBUG] [FML/vf]: Attempting to inject @SidedProxy classes into vf
[16:14:40] [Server thread/TRACE] [vf/vf]: Sent event FMLConstructionEvent to mod vf
[16:14:40] [Server thread/DEBUG] [FML/]: Bar Step: Construction - Vaginafart15 took 0.013s
[16:14:40] [Server thread/DEBUG] [FML/]: Bar Finished: Construction took 0.336s
[16:14:40] [Server thread/DEBUG] [FML/]: Mod signature data
[16:14:40] [Server thread/DEBUG] [FML/]:  	Valid Signatures:
[16:14:40] [Server thread/DEBUG] [FML/]:  	Missing Signatures:
[16:14:40] [Server thread/DEBUG] [FML/]: 		mcp	(Minecraft Coder Pack	9.05)	minecraft.jar
[16:14:40] [Server thread/DEBUG] [FML/]: 		FML	(Forge Mod Loader	7.10.99.99)	forgeSrc-1.7.10-10.13.4.1614-1.7.10.jar
[16:14:40] [Server thread/DEBUG] [FML/]: 		Forge	(Minecraft Forge	10.13.4.1614)	forgeSrc-1.7.10-10.13.4.1614-1.7.10.jar
[16:14:40] [Server thread/DEBUG] [FML/]: 		vf	(Vaginafart15	1.0.0-ALPHA)	vaginafart15-1.0.0-ALPHA.jar
[16:14:40] [Server thread/INFO] [FML/]: Processing ObjectHolder annotations
[16:14:40] [Server thread/INFO] [FML/]: Found 341 ObjectHolder annotations
[16:14:40] [Server thread/INFO] [FML/]: Identifying ItemStackHolder annotations
[16:14:40] [Server thread/INFO] [FML/]: Found 0 ItemStackHolder annotations
[16:14:40] [Server thread/TRACE] [mcp/mcp]: Sending event FMLPreInitializationEvent to mod mcp
[16:14:40] [Server thread/TRACE] [mcp/mcp]: Sent event FMLPreInitializationEvent to mod mcp
[16:14:40] [Server thread/DEBUG] [FML/]: Bar Step: PreInitialization - Minecraft Coder Pack took 0.000s
[16:14:40] [Server thread/TRACE] [FML/FML]: Sending event FMLPreInitializationEvent to mod FML
[16:14:40] [Server thread/TRACE] [FML/FML]: Sent event FMLPreInitializationEvent to mod FML
[16:14:40] [Server thread/DEBUG] [FML/]: Bar Step: PreInitialization - Forge Mod Loader took 0.001s
[16:14:40] [Server thread/TRACE] [Forge/Forge]: Sending event FMLPreInitializationEvent to mod Forge
[16:14:40] [Server thread/INFO] [FML/Forge]: Configured a dormant chunk cache size of 0
[16:14:40] [Server thread/TRACE] [Forge/Forge]: Sent event FMLPreInitializationEvent to mod Forge
[16:14:40] [Server thread/DEBUG] [FML/]: Bar Step: PreInitialization - Minecraft Forge took 0.026s
[16:14:40] [Server thread/TRACE] [vf/vf]: Sending event FMLPreInitializationEvent to mod vf
[16:14:40] [Server thread/TRACE] [vf/vf]: Sent event FMLPreInitializationEvent to mod vf
[16:14:40] [Server thread/DEBUG] [FML/]: Bar Step: PreInitialization - Vaginafart15 took 0.005s
[16:14:40] [Server thread/DEBUG] [FML/]: Bar Finished: PreInitialization took 0.032s
[16:14:40] [Server thread/INFO] [FML/]: Applying holder lookups
[16:14:40] [Server thread/INFO] [FML/]: Holder lookups applied
[16:14:40] [Server thread/INFO] [FML/]: Injecting itemstacks
[16:14:40] [Server thread/INFO] [FML/]: Itemstack injection complete
[16:14:40] [Server thread/TRACE] [mcp/mcp]: Sending event FMLInitializationEvent to mod mcp
[16:14:40] [Server thread/TRACE] [mcp/mcp]: Sent event FMLInitializationEvent to mod mcp
[16:14:40] [Server thread/DEBUG] [FML/]: Bar Step: Initialization - Minecraft Coder Pack took 0.000s
[16:14:40] [Server thread/TRACE] [FML/FML]: Sending event FMLInitializationEvent to mod FML
[16:14:40] [Server thread/TRACE] [FML/FML]: Sent event FMLInitializationEvent to mod FML
[16:14:40] [Server thread/DEBUG] [FML/]: Bar Step: Initialization - Forge Mod Loader took 0.000s
[16:14:40] [Server thread/TRACE] [Forge/Forge]: Sending event FMLInitializationEvent to mod Forge
[16:14:40] [Server thread/TRACE] [Forge/Forge]: Sent event FMLInitializationEvent to mod Forge
[16:14:40] [Server thread/DEBUG] [FML/]: Bar Step: Initialization - Minecraft Forge took 0.001s
[16:14:40] [Server thread/TRACE] [vf/vf]: Sending event FMLInitializationEvent to mod vf
[16:14:40] [Server thread/TRACE] [vf/vf]: Sent event FMLInitializationEvent to mod vf
[16:14:40] [Server thread/DEBUG] [FML/]: Bar Step: Initialization - Vaginafart15 took 0.001s
[16:14:40] [Server thread/DEBUG] [FML/]: Bar Finished: Initialization took 0.002s
[16:14:40] [Server thread/TRACE] [FML/]: Attempting to deliver 0 IMC messages to mod mcp
[16:14:40] [Server thread/TRACE] [mcp/mcp]: Sending event IMCEvent to mod mcp
[16:14:40] [Server thread/TRACE] [mcp/mcp]: Sent event IMCEvent to mod mcp
[16:14:40] [Server thread/DEBUG] [FML/]: Bar Step: InterModComms$IMC - Minecraft Coder Pack took 0.003s
[16:14:40] [Server thread/TRACE] [FML/]: Attempting to deliver 0 IMC messages to mod FML
[16:14:40] [Server thread/TRACE] [FML/FML]: Sending event IMCEvent to mod FML
[16:14:40] [Server thread/TRACE] [FML/FML]: Sent event IMCEvent to mod FML
[16:14:40] [Server thread/DEBUG] [FML/]: Bar Step: InterModComms$IMC - Forge Mod Loader took 0.000s
[16:14:40] [Server thread/TRACE] [FML/]: Attempting to deliver 0 IMC messages to mod Forge
[16:14:40] [Server thread/TRACE] [Forge/Forge]: Sending event IMCEvent to mod Forge
[16:14:40] [Server thread/TRACE] [Forge/Forge]: Sent event IMCEvent to mod Forge
[16:14:40] [Server thread/DEBUG] [FML/]: Bar Step: InterModComms$IMC - Minecraft Forge took 0.000s
[16:14:40] [Server thread/TRACE] [FML/]: Attempting to deliver 0 IMC messages to mod vf
[16:14:40] [Server thread/TRACE] [vf/vf]: Sending event IMCEvent to mod vf
[16:14:40] [Server thread/TRACE] [vf/vf]: Sent event IMCEvent to mod vf
[16:14:40] [Server thread/DEBUG] [FML/]: Bar Step: InterModComms$IMC - Vaginafart15 took 0.000s
[16:14:40] [Server thread/DEBUG] [FML/]: Bar Finished: InterModComms$IMC took 0.004s
[16:14:40] [Server thread/INFO] [FML/]: Injecting itemstacks
[16:14:40] [Server thread/INFO] [FML/]: Itemstack injection complete
[16:14:40] [Server thread/TRACE] [mcp/mcp]: Sending event FMLPostInitializationEvent to mod mcp
[16:14:40] [Server thread/TRACE] [mcp/mcp]: Sent event FMLPostInitializationEvent to mod mcp
[16:14:40] [Server thread/DEBUG] [FML/]: Bar Step: PostInitialization - Minecraft Coder Pack took 0.000s
[16:14:40] [Server thread/TRACE] [FML/FML]: Sending event FMLPostInitializationEvent to mod FML
[16:14:40] [Server thread/TRACE] [FML/FML]: Sent event FMLPostInitializationEvent to mod FML
[16:14:40] [Server thread/DEBUG] [FML/]: Bar Step: PostInitialization - Forge Mod Loader took 0.000s
[16:14:40] [Server thread/TRACE] [Forge/Forge]: Sending event FMLPostInitializationEvent to mod Forge
[16:14:41] [Server thread/TRACE] [Forge/Forge]: Sent event FMLPostInitializationEvent to mod Forge
[16:14:41] [Server thread/DEBUG] [FML/]: Bar Step: PostInitialization - Minecraft Forge took 0.262s
[16:14:41] [Server thread/TRACE] [vf/vf]: Sending event FMLPostInitializationEvent to mod vf
[16:14:41] [Server thread/TRACE] [vf/vf]: Sent event FMLPostInitializationEvent to mod vf
[16:14:41] [Server thread/DEBUG] [FML/]: Bar Step: PostInitialization - Vaginafart15 took 0.000s
[16:14:41] [Server thread/DEBUG] [FML/]: Bar Finished: PostInitialization took 0.263s
[16:14:41] [Server thread/TRACE] [mcp/mcp]: Sending event FMLLoadCompleteEvent to mod mcp
[16:14:41] [Server thread/TRACE] [mcp/mcp]: Sent event FMLLoadCompleteEvent to mod mcp
[16:14:41] [Server thread/DEBUG] [FML/]: Bar Step: LoadComplete - Minecraft Coder Pack took 0.000s
[16:14:41] [Server thread/TRACE] [FML/FML]: Sending event FMLLoadCompleteEvent to mod FML
[16:14:41] [Server thread/TRACE] [FML/FML]: Sent event FMLLoadCompleteEvent to mod FML
[16:14:41] [Server thread/DEBUG] [FML/]: Bar Step: LoadComplete - Forge Mod Loader took 0.000s
[16:14:41] [Server thread/TRACE] [Forge/Forge]: Sending event FMLLoadCompleteEvent to mod Forge
[16:14:41] [Server thread/DEBUG] [FML/Forge]: Forge RecipeSorter Baking:
[16:14:41] [Server thread/DEBUG] [FML/Forge]:   11: RecipeEntry("Before", UNKNOWN, )
[16:14:41] [Server thread/DEBUG] [FML/Forge]:   10: RecipeEntry("minecraft:shaped", SHAPED, net.minecraft.item.crafting.ShapedRecipes) Before: minecraft:shapeless
[16:14:41] [Server thread/DEBUG] [FML/Forge]:   9: RecipeEntry("forge:shapedore", SHAPED, net.minecraftforge.oredict.ShapedOreRecipe) Before: minecraft:shapeless After: minecraft:shaped
[16:14:41] [Server thread/DEBUG] [FML/Forge]:   8: RecipeEntry("minecraft:mapextending", SHAPED, net.minecraft.item.crafting.RecipesMapExtending) Before: minecraft:shapeless After: minecraft:shaped
[16:14:41] [Server thread/DEBUG] [FML/Forge]:   7: RecipeEntry("minecraft:shapeless", SHAPELESS, net.minecraft.item.crafting.ShapelessRecipes) After: minecraft:shaped
[16:14:41] [Server thread/DEBUG] [FML/Forge]:   6: RecipeEntry("forge:shapelessore", SHAPELESS, net.minecraftforge.oredict.ShapelessOreRecipe) After: minecraft:shapeless
[16:14:41] [Server thread/DEBUG] [FML/Forge]:   5: RecipeEntry("minecraft:armordyes", SHAPELESS, net.minecraft.item.crafting.RecipesArmorDyes) After: minecraft:shapeless
[16:14:41] [Server thread/DEBUG] [FML/Forge]:   4: RecipeEntry("minecraft:fireworks", SHAPELESS, net.minecraft.item.crafting.RecipeFireworks) After: minecraft:shapeless
[16:14:41] [Server thread/DEBUG] [FML/Forge]:   3: RecipeEntry("minecraft:bookcloning", SHAPELESS, net.minecraft.item.crafting.RecipeBookCloning) After: minecraft:shapeless
[16:14:41] [Server thread/DEBUG] [FML/Forge]:   2: RecipeEntry("minecraft:mapcloning", SHAPELESS, net.minecraft.item.crafting.RecipesMapCloning) After: minecraft:shapeless
[16:14:41] [Server thread/DEBUG] [FML/Forge]:   1: RecipeEntry("After", UNKNOWN, )
[16:14:41] [Server thread/DEBUG] [FML/Forge]: Sorting recipies
[16:14:41] [Server thread/TRACE] [Forge/Forge]: Sent event FMLLoadCompleteEvent to mod Forge
[16:14:41] [Server thread/DEBUG] [FML/]: Bar Step: LoadComplete - Minecraft Forge took 0.006s
[16:14:41] [Server thread/TRACE] [vf/vf]: Sending event FMLLoadCompleteEvent to mod vf
[16:14:41] [Server thread/TRACE] [vf/vf]: Sent event FMLLoadCompleteEvent to mod vf
[16:14:41] [Server thread/DEBUG] [FML/]: Bar Step: LoadComplete - Vaginafart15 took 0.000s
[16:14:41] [Server thread/DEBUG] [FML/]: Bar Finished: LoadComplete took 0.007s
[16:14:41] [Server thread/DEBUG] [FML/]: Freezing block and item id maps
[16:14:41] [Server thread/DEBUG] [FML/]: Registry consistency check successful
[16:14:41] [Server thread/DEBUG] [FML/]: Registry consistency check successful
[16:14:41] [Server thread/INFO] [FML/]: Forge Mod Loader has successfully loaded 4 mods
[16:14:41] [Server thread/TRACE] [mcp/mcp]: Sending event FMLServerAboutToStartEvent to mod mcp
[16:14:41] [Server thread/TRACE] [mcp/mcp]: Sent event FMLServerAboutToStartEvent to mod mcp
[16:14:41] [Server thread/DEBUG] [FML/]: Bar Step: ServerAboutToStart - Minecraft Coder Pack took 0.000s
[16:14:41] [Server thread/TRACE] [FML/FML]: Sending event FMLServerAboutToStartEvent to mod FML
[16:14:41] [Server thread/TRACE] [FML/FML]: Sent event FMLServerAboutToStartEvent to mod FML
[16:14:41] [Server thread/DEBUG] [FML/]: Bar Step: ServerAboutToStart - Forge Mod Loader took 0.000s
[16:14:41] [Server thread/TRACE] [Forge/Forge]: Sending event FMLServerAboutToStartEvent to mod Forge
[16:14:41] [Server thread/TRACE] [Forge/Forge]: Sent event FMLServerAboutToStartEvent to mod Forge
[16:14:41] [Server thread/DEBUG] [FML/]: Bar Step: ServerAboutToStart - Minecraft Forge took 0.000s
[16:14:41] [Server thread/TRACE] [vf/vf]: Sending event FMLServerAboutToStartEvent to mod vf
[16:14:41] [Server thread/TRACE] [vf/vf]: Sent event FMLServerAboutToStartEvent to mod vf
[16:14:41] [Server thread/DEBUG] [FML/]: Bar Step: ServerAboutToStart - Vaginafart15 took 0.000s
[16:14:41] [Server thread/DEBUG] [FML/]: Bar Finished: ServerAboutToStart took 0.001s
[16:14:41] [Server thread/INFO] [FML/]: Injecting existing block and item data into this server instance
[16:14:41] [Server thread/DEBUG] [FML/]: Registry consistency check successful
[16:14:41] [Server thread/DEBUG] [FML/]: Registry consistency check successful
[16:14:41] [Server thread/TRACE] [mcp/mcp]: Sending event FMLModIdMappingEvent to mod mcp
[16:14:41] [Server thread/TRACE] [mcp/mcp]: Sent event FMLModIdMappingEvent to mod mcp
[16:14:41] [Server thread/DEBUG] [FML/]: Bar Step: ModIdMapping - Minecraft Coder Pack took 0.000s
[16:14:41] [Server thread/TRACE] [FML/FML]: Sending event FMLModIdMappingEvent to mod FML
[16:14:41] [Server thread/TRACE] [FML/FML]: Sent event FMLModIdMappingEvent to mod FML
[16:14:41] [Server thread/DEBUG] [FML/]: Bar Step: ModIdMapping - Forge Mod Loader took 0.000s
[16:14:41] [Server thread/TRACE] [Forge/Forge]: Sending event FMLModIdMappingEvent to mod Forge
[16:14:41] [Server thread/TRACE] [Forge/Forge]: Sent event FMLModIdMappingEvent to mod Forge
[16:14:41] [Server thread/DEBUG] [FML/]: Bar Step: ModIdMapping - Minecraft Forge took 0.001s
[16:14:41] [Server thread/TRACE] [vf/vf]: Sending event FMLModIdMappingEvent to mod vf
[16:14:41] [Server thread/TRACE] [vf/vf]: Sent event FMLModIdMappingEvent to mod vf
[16:14:41] [Server thread/DEBUG] [FML/]: Bar Step: ModIdMapping - Vaginafart15 took 0.000s
[16:14:41] [Server thread/DEBUG] [FML/]: Bar Finished: ModIdMapping took 0.002s
[16:14:41] [Server thread/INFO] [FML/]: Applying holder lookups
[16:14:41] [Server thread/INFO] [FML/]: Holder lookups applied
[16:14:41] [Server thread/DEBUG] [FML/]: Loading persistent fluid defaults from world
[16:14:41] [Server thread/DEBUG] [FML/]: The fluid minecraft:lava has been selected as the default fluid for lava
[16:14:41] [Server thread/DEBUG] [FML/]: The fluid minecraft:water has been selected as the default fluid for water
[16:14:41] [Server thread/INFO] [FML/]: Loading dimension 0 (world) (net.minecraft.server.dedicated.DedicatedServer@490c7f2c)
[16:14:41] [Server thread/INFO] [FML/]: Loading dimension 1 (world) (net.minecraft.server.dedicated.DedicatedServer@490c7f2c)
[16:14:41] [Server thread/INFO] [FML/]: Loading dimension -1 (world) (net.minecraft.server.dedicated.DedicatedServer@490c7f2c)
[16:14:42] [Server thread/TRACE] [mcp/mcp]: Sending event FMLServerStartingEvent to mod mcp
[16:14:42] [Server thread/TRACE] [mcp/mcp]: Sent event FMLServerStartingEvent to mod mcp
[16:14:42] [Server thread/DEBUG] [FML/]: Bar Step: ServerStarting - Minecraft Coder Pack took 0.000s
[16:14:42] [Server thread/TRACE] [FML/FML]: Sending event FMLServerStartingEvent to mod FML
[16:14:42] [Server thread/TRACE] [FML/FML]: Sent event FMLServerStartingEvent to mod FML
[16:14:42] [Server thread/DEBUG] [FML/]: Bar Step: ServerStarting - Forge Mod Loader took 0.000s
[16:14:42] [Server thread/TRACE] [Forge/Forge]: Sending event FMLServerStartingEvent to mod Forge
[16:14:42] [Server thread/TRACE] [Forge/Forge]: Sent event FMLServerStartingEvent to mod Forge
[16:14:42] [Server thread/DEBUG] [FML/]: Bar Step: ServerStarting - Minecraft Forge took 0.002s
[16:14:42] [Server thread/TRACE] [vf/vf]: Sending event FMLServerStartingEvent to mod vf
[16:14:42] [Server thread/TRACE] [vf/vf]: Sent event FMLServerStartingEvent to mod vf
[16:14:42] [Server thread/DEBUG] [FML/]: Bar Step: ServerStarting - Vaginafart15 took 0.000s
[16:14:42] [Server thread/DEBUG] [FML/]: Bar Finished: ServerStarting took 0.003s
[16:14:42] [Server thread/TRACE] [mcp/mcp]: Sending event FMLServerStartedEvent to mod mcp
[16:14:42] [Server thread/TRACE] [mcp/mcp]: Sent event FMLServerStartedEvent to mod mcp
[16:14:42] [Server thread/DEBUG] [FML/]: Bar Step: ServerStarted - Minecraft Coder Pack took 0.000s
[16:14:42] [Server thread/TRACE] [FML/FML]: Sending event FMLServerStartedEvent to mod FML
[16:14:42] [Server thread/TRACE] [FML/FML]: Sent event FMLServerStartedEvent to mod FML
[16:14:42] [Server thread/DEBUG] [FML/]: Bar Step: ServerStarted - Forge Mod Loader took 0.000s
[16:14:42] [Server thread/TRACE] [Forge/Forge]: Sending event FMLServerStartedEvent to mod Forge
[16:14:42] [Server thread/TRACE] [Forge/Forge]: Sent event FMLServerStartedEvent to mod Forge
[16:14:42] [Server thread/DEBUG] [FML/]: Bar Step: ServerStarted - Minecraft Forge took 0.000s
[16:14:42] [Server thread/TRACE] [vf/vf]: Sending event FMLServerStartedEvent to mod vf
[16:14:42] [Server thread/TRACE] [vf/vf]: Sent event FMLServerStartedEvent to mod vf
[16:14:42] [Server thread/DEBUG] [FML/]: Bar Step: ServerStarted - Vaginafart15 took 0.000s
[16:14:42] [Server thread/DEBUG] [FML/]: Bar Finished: ServerStarted took 0.001s
[16:14:48] [Netty IO #2/TRACE] [FML/]: $ClientHello->FMLHandshakeServerState$2:HELLO
[16:14:48] [Netty IO #2/INFO] [FML/]: Client protocol version 2
[16:14:48] [Netty IO #2/TRACE] [FML/]: $ModList:4 mods->FMLHandshakeServerState$2:HELLO
[16:14:48] [Netty IO #2/INFO] [FML/]: Client attempting to join with 4 mods : vf@1.0.0-ALPHA,FML@7.10.99.99,Forge@10.13.4.1614,mcp@9.05
[16:14:48] [Netty IO #2/INFO] [FML/]: Attempting connection with missing mods [] at CLIENT
[16:14:48] [Netty IO #2/TRACE] [FML/]: $HandshakeAck:{2}->FMLHandshakeServerState$3:WAITINGCACK
[16:14:48] [Netty IO #2/TRACE] [FML/]: $HandshakeAck:{3}->FMLHandshakeServerState$4:COMPLETE
[16:14:48] [Netty IO #2/TRACE] [FML/]: $HandshakeAck:{4}->FMLHandshakeServerState$5:DONE
[16:14:48] [Netty IO #2/TRACE] [FML/]: $HandshakeAck:{5}->FMLHandshakeServerState$5:DONE
[16:14:48] [Server thread/INFO] [FML/]: [Server thread] Server side modded connection established
[16:14:52] [Netty IO #4/TRACE] [FML/]: $ClientHello->FMLHandshakeServerState$2:HELLO
[16:14:52] [Netty IO #4/INFO] [FML/]: Client protocol version 2
[16:14:52] [Netty IO #4/TRACE] [FML/]: $ModList:4 mods->FMLHandshakeServerState$2:HELLO
[16:14:52] [Netty IO #4/INFO] [FML/]: Client attempting to join with 4 mods : vf@1.0.0-ALPHA,FML@7.10.99.99,Forge@10.13.4.1614,mcp@9.05
[16:14:52] [Netty IO #4/INFO] [FML/]: Attempting connection with missing mods [] at CLIENT
[16:14:52] [Netty IO #4/TRACE] [FML/]: $HandshakeAck:{2}->FMLHandshakeServerState$3:WAITINGCACK
[16:14:52] [Netty IO #4/TRACE] [FML/]: $HandshakeAck:{3}->FMLHandshakeServerState$4:COMPLETE
[16:14:52] [Netty IO #4/TRACE] [FML/]: $HandshakeAck:{4}->FMLHandshakeServerState$5:DONE
[16:14:52] [Netty IO #4/TRACE] [FML/]: $HandshakeAck:{5}->FMLHandshakeServerState$5:DONE
[16:14:52] [Server thread/INFO] [FML/]: [Server thread] Server side modded connection established
[16:15:27] [Server thread/DEBUG] [FML/]: Gathering id map for writing to world save world
[16:15:49] [Server thread/INFO] [STDOUT/]: [be.maruku.vaginafart15.couffey.ItemCouffey:onItemRightClick:20]: $$$$ -x- S W A G -x- $$$$
[16:15:49] [Server thread/INFO] [STDOUT/]: [be.maruku.vaginafart15.couffey.ItemCouffey:onItemRightClick:20]: $$$$ -x- S W A G -x- $$$$
[16:15:50] [Server thread/INFO] [STDOUT/]: [be.maruku.vaginafart15.couffey.ItemCouffey:onItemRightClick:20]: $$$$ -x- S W A G -x- $$$$
[16:15:52] [Server thread/INFO] [STDOUT/]: [be.maruku.vaginafart15.couffey.ItemCouffey:onItemRightClick:20]: $$$$ -x- S W A G -x- $$$$
[16:15:53] [Server thread/INFO] [STDOUT/]: [be.maruku.vaginafart15.couffey.ItemCouffey:onItemRightClick:20]: $$$$ -x- S W A G -x- $$$$
[16:15:54] [Server thread/INFO] [STDOUT/]: [be.maruku.vaginafart15.couffey.ItemCouffey:onItemRightClick:20]: $$$$ -x- S W A G -x- $$$$
[16:15:56] [Server thread/INFO] [STDOUT/]: [be.maruku.vaginafart15.couffey.ItemCouffey:onItemRightClick:20]: $$$$ -x- S W A G -x- $$$$
[16:15:57] [Server thread/INFO] [STDOUT/]: [be.maruku.vaginafart15.couffey.ItemCouffey:onItemRightClick:20]: $$$$ -x- S W A G -x- $$$$
[16:15:59] [Server thread/INFO] [STDOUT/]: [be.maruku.vaginafart15.couffey.ItemCouffey:onItemRightClick:20]: $$$$ -x- S W A G -x- $$$$
[16:16:00] [Server thread/INFO] [STDOUT/]: [be.maruku.vaginafart15.couffey.ItemCouffey:onItemRightClick:20]: $$$$ -x- S W A G -x- $$$$
[16:16:01] [Server thread/INFO] [STDOUT/]: [be.maruku.vaginafart15.couffey.ItemCouffey:onItemRightClick:20]: $$$$ -x- S W A G -x- $$$$
[16:16:02] [Server thread/INFO] [STDOUT/]: [be.maruku.vaginafart15.couffey.ItemCouffey:onItemRightClick:20]: $$$$ -x- S W A G -x- $$$$
[16:16:12] [Server thread/DEBUG] [FML/]: Gathering id map for writing to world save world
[16:16:22] [Server thread/TRACE] [mcp/mcp]: Sending event FMLServerStoppingEvent to mod mcp
[16:16:22] [Server thread/TRACE] [mcp/mcp]: Sent event FMLServerStoppingEvent to mod mcp
[16:16:22] [Server thread/DEBUG] [FML/]: Bar Step: ServerStopping - Minecraft Coder Pack took 0.000s
[16:16:22] [Server thread/TRACE] [FML/FML]: Sending event FMLServerStoppingEvent to mod FML
[16:16:22] [Server thread/TRACE] [FML/FML]: Sent event FMLServerStoppingEvent to mod FML
[16:16:22] [Server thread/DEBUG] [FML/]: Bar Step: ServerStopping - Forge Mod Loader took 0.000s
[16:16:22] [Server thread/TRACE] [Forge/Forge]: Sending event FMLServerStoppingEvent to mod Forge
[16:16:22] [Server thread/TRACE] [Forge/Forge]: Sent event FMLServerStoppingEvent to mod Forge
[16:16:22] [Server thread/DEBUG] [FML/]: Bar Step: ServerStopping - Minecraft Forge took 0.000s
[16:16:22] [Server thread/TRACE] [vf/vf]: Sending event FMLServerStoppingEvent to mod vf
[16:16:22] [Server thread/TRACE] [vf/vf]: Sent event FMLServerStoppingEvent to mod vf
[16:16:22] [Server thread/DEBUG] [FML/]: Bar Step: ServerStopping - Vaginafart15 took 0.000s
[16:16:22] [Server thread/DEBUG] [FML/]: Bar Finished: ServerStopping took 0.001s
[16:16:22] [Server thread/DEBUG] [FML/]: Gathering id map for writing to world save world
[16:16:22] [Server thread/INFO] [FML/]: Unloading dimension 0
[16:16:22] [Server thread/INFO] [FML/]: Unloading dimension -1
[16:16:22] [Server thread/INFO] [FML/]: Unloading dimension 1
[16:16:22] [Server thread/DEBUG] [FML/]: Reverting to frozen data state.
[16:16:22] [Server thread/TRACE] [mcp/mcp]: Sending event FMLModIdMappingEvent to mod mcp
[16:16:22] [Server thread/TRACE] [mcp/mcp]: Sent event FMLModIdMappingEvent to mod mcp
[16:16:22] [Server thread/DEBUG] [FML/]: Bar Step: ModIdMapping - Minecraft Coder Pack took 0.000s
[16:16:22] [Server thread/TRACE] [FML/FML]: Sending event FMLModIdMappingEvent to mod FML
[16:16:22] [Server thread/TRACE] [FML/FML]: Sent event FMLModIdMappingEvent to mod FML
[16:16:22] [Server thread/DEBUG] [FML/]: Bar Step: ModIdMapping - Forge Mod Loader took 0.000s
[16:16:22] [Server thread/TRACE] [Forge/Forge]: Sending event FMLModIdMappingEvent to mod Forge
[16:16:22] [Server thread/TRACE] [Forge/Forge]: Sent event FMLModIdMappingEvent to mod Forge
[16:16:22] [Server thread/DEBUG] [FML/]: Bar Step: ModIdMapping - Minecraft Forge took 0.000s
[16:16:22] [Server thread/TRACE] [vf/vf]: Sending event FMLModIdMappingEvent to mod vf
[16:16:22] [Server thread/TRACE] [vf/vf]: Sent event FMLModIdMappingEvent to mod vf
[16:16:22] [Server thread/DEBUG] [FML/]: Bar Step: ModIdMapping - Vaginafart15 took 0.000s
[16:16:22] [Server thread/DEBUG] [FML/]: Bar Finished: ModIdMapping took 0.001s
[16:16:22] [Server thread/INFO] [FML/]: Applying holder lookups
[16:16:22] [Server thread/INFO] [FML/]: Holder lookups applied
[16:16:22] [Server thread/TRACE] [mcp/mcp]: Sending event FMLServerStoppedEvent to mod mcp
[16:16:22] [Server thread/TRACE] [mcp/mcp]: Sent event FMLServerStoppedEvent to mod mcp
[16:16:22] [Server thread/DEBUG] [FML/]: Bar Step: ServerStopped - Minecraft Coder Pack took 0.000s
[16:16:22] [Server thread/TRACE] [FML/FML]: Sending event FMLServerStoppedEvent to mod FML
[16:16:22] [Server thread/TRACE] [FML/FML]: Sent event FMLServerStoppedEvent to mod FML
[16:16:22] [Server thread/DEBUG] [FML/]: Bar Step: ServerStopped - Forge Mod Loader took 0.000s
[16:16:22] [Server thread/TRACE] [Forge/Forge]: Sending event FMLServerStoppedEvent to mod Forge
[16:16:22] [Server thread/TRACE] [Forge/Forge]: Sent event FMLServerStoppedEvent to mod Forge
[16:16:22] [Server thread/DEBUG] [FML/]: Bar Step: ServerStopped - Minecraft Forge took 0.000s
[16:16:22] [Server thread/TRACE] [vf/vf]: Sending event FMLServerStoppedEvent to mod vf
[16:16:22] [Server thread/TRACE] [vf/vf]: Sent event FMLServerStoppedEvent to mod vf
[16:16:22] [Server thread/DEBUG] [FML/]: Bar Step: ServerStopped - Vaginafart15 took 0.000s
[16:16:22] [Server thread/DEBUG] [FML/]: Bar Finished: ServerStopped took 0.001s
