[
  {
    "uuid": "2dd1d9e7-57ae-36c4-8b90-c235b1bdb90f",
    "name": "Player948",
    "level": 4
  },
  {
    "uuid": "383d2669-dd1d-3bb6-9599-ddb9736fd75c",
    "name": "Player386",
    "level": 4
  },
  {
    "uuid": "2a1dbdad-4c67-3be9-94f7-29e916d930b4",
    "name": "@a",
    "level": 4
  },
  {
    "uuid": "e842b536-bd2e-36a7-9e4d-a97b10ab8389",
    "name": "Player440",
    "level": 4
  }
]